ondas/tb_ctrl.vcd
$date
  Sun Sep 19 21:50:29 2021
$end
$version
  GHDL v0
$end
$timescale
  1 fs
$end
$scope module standard $end
$upscope $end
$scope module std_logic_1164 $end
$upscope $end
$scope module numeric_std $end
$upscope $end
$scope module tb_ctrl $end
$var reg 1 ! s_clk $end
$var reg 1 " s_cl $end
$var reg 8 # s_barr_di[7:0] $end
$var reg 2 $ s_flags_nz[1:0] $end
$var reg 11 % s_barr_ctrl[10:0] $end
$scope module u_ctrl $end
$var reg 8 & barr_di[7:0] $end
$var reg 2 ' nz[1:0] $end
$var reg 1 ( clk $end
$var reg 1 ) cl $end
$var reg 11 * barr_ctrl[10:0] $end
$var reg 11 + s_barr_crtl[10:0] $end
$var reg 8 , s_ri2dec[7:0] $end
$var reg 11 - s_dec2uc[10:0] $end
$scope module u_ri $end
$var reg 8 . d[7:0] $end
$var reg 1 / rw $end
$var reg 1 0 clk $end
$var reg 1 1 pr $end
$var reg 1 2 cl $end
$var reg 8 3 s[7:0] $end
$scope module gen_r(0) $end
$scope module rx $end
$var reg 1 4 d $end
$var reg 1 5 rw $end
$var reg 1 6 clk $end
$var reg 1 7 pr $end
$var reg 1 8 cl $end
$var reg 1 9 s $end
$var reg 1 : sd $end
$var reg 1 ; sq $end
$var reg 1 < snq $end
$scope module u_ffd $end
$var reg 1 = d $end
$var reg 1 > clk $end
$var reg 1 ? pr $end
$var reg 1 @ cl $end
$var reg 1 A q $end
$var reg 1 B nq $end
$var reg 1 C sq $end
$var reg 1 D snq $end
$var reg 1 E nj $end
$scope module u_td $end
$var reg 1 F j $end
$var reg 1 G k $end
$var reg 1 H clk $end
$var reg 1 I pr $end
$var reg 1 J cl $end
$var reg 1 K q $end
$var reg 1 L nq $end
$var reg 1 M sq $end
$var reg 1 N snq $end
$upscope $end
$upscope $end
$upscope $end
$upscope $end
$scope module gen_r(1) $end
$scope module rx $end
$var reg 1 O d $end
$var reg 1 P rw $end
$var reg 1 Q clk $end
$var reg 1 R pr $end
$var reg 1 S cl $end
$var reg 1 T s $end
$var reg 1 U sd $end
$var reg 1 V sq $end
$var reg 1 W snq $end
$scope module u_ffd $end
$var reg 1 X d $end
$var reg 1 Y clk $end
$var reg 1 Z pr $end
$var reg 1 [ cl $end
$var reg 1 \ q $end
$var reg 1 ] nq $end
$var reg 1 ^ sq $end
$var reg 1 _ snq $end
$var reg 1 ` nj $end
$scope module u_td $end
$var reg 1 a j $end
$var reg 1 b k $end
$var reg 1 c clk $end
$var reg 1 d pr $end
$var reg 1 e cl $end
$var reg 1 f q $end
$var reg 1 g nq $end
$var reg 1 h sq $end
$var reg 1 i snq $end
$upscope $end
$upscope $end
$upscope $end
$upscope $end
$scope module gen_r(2) $end
$scope module rx $end
$var reg 1 j d $end
$var reg 1 k rw $end
$var reg 1 l clk $end
$var reg 1 m pr $end
$var reg 1 n cl $end
$var reg 1 o s $end
$var reg 1 p sd $end
$var reg 1 q sq $end
$var reg 1 r snq $end
$scope module u_ffd $end
$var reg 1 s d $end
$var reg 1 t clk $end
$var reg 1 u pr $end
$var reg 1 v cl $end
$var reg 1 w q $end
$var reg 1 x nq $end
$var reg 1 y sq $end
$var reg 1 z snq $end
$var reg 1 { nj $end
$scope module u_td $end
$var reg 1 | j $end
$var reg 1 } k $end
$var reg 1 !" clk $end
$var reg 1 "" pr $end
$var reg 1 #" cl $end
$var reg 1 $" q $end
$var reg 1 %" nq $end
$var reg 1 &" sq $end
$var reg 1 '" snq $end
$upscope $end
$upscope $end
$upscope $end
$upscope $end
$scope module gen_r(3) $end
$scope module rx $end
$var reg 1 (" d $end
$var reg 1 )" rw $end
$var reg 1 *" clk $end
$var reg 1 +" pr $end
$var reg 1 ," cl $end
$var reg 1 -" s $end
$var reg 1 ." sd $end
$var reg 1 /" sq $end
$var reg 1 0" snq $end
$scope module u_ffd $end
$var reg 1 1" d $end
$var reg 1 2" clk $end
$var reg 1 3" pr $end
$var reg 1 4" cl $end
$var reg 1 5" q $end
$var reg 1 6" nq $end
$var reg 1 7" sq $end
$var reg 1 8" snq $end
$var reg 1 9" nj $end
$scope module u_td $end
$var reg 1 :" j $end
$var reg 1 ;" k $end
$var reg 1 <" clk $end
$var reg 1 =" pr $end
$var reg 1 >" cl $end
$var reg 1 ?" q $end
$var reg 1 @" nq $end
$var reg 1 A" sq $end
$var reg 1 B" snq $end
$upscope $end
$upscope $end
$upscope $end
$upscope $end
$scope module gen_r(4) $end
$scope module rx $end
$var reg 1 C" d $end
$var reg 1 D" rw $end
$var reg 1 E" clk $end
$var reg 1 F" pr $end
$var reg 1 G" cl $end
$var reg 1 H" s $end
$var reg 1 I" sd $end
$var reg 1 J" sq $end
$var reg 1 K" snq $end
$scope module u_ffd $end
$var reg 1 L" d $end
$var reg 1 M" clk $end
$var reg 1 N" pr $end
$var reg 1 O" cl $end
$var reg 1 P" q $end
$var reg 1 Q" nq $end
$var reg 1 R" sq $end
$var reg 1 S" snq $end
$var reg 1 T" nj $end
$scope module u_td $end
$var reg 1 U" j $end
$var reg 1 V" k $end
$var reg 1 W" clk $end
$var reg 1 X" pr $end
$var reg 1 Y" cl $end
$var reg 1 Z" q $end
$var reg 1 [" nq $end
$var reg 1 \" sq $end
$var reg 1 ]" snq $end
$upscope $end
$upscope $end
$upscope $end
$upscope $end
$scope module gen_r(5) $end
$scope module rx $end
$var reg 1 ^" d $end
$var reg 1 _" rw $end
$var reg 1 `" clk $end
$var reg 1 a" pr $end
$var reg 1 b" cl $end
$var reg 1 c" s $end
$var reg 1 d" sd $end
$var reg 1 e" sq $end
$var reg 1 f" snq $end
$scope module u_ffd $end
$var reg 1 g" d $end
$var reg 1 h" clk $end
$var reg 1 i" pr $end
$var reg 1 j" cl $end
$var reg 1 k" q $end
$var reg 1 l" nq $end
$var reg 1 m" sq $end
$var reg 1 n" snq $end
$var reg 1 o" nj $end
$scope module u_td $end
$var reg 1 p" j $end
$var reg 1 q" k $end
$var reg 1 r" clk $end
$var reg 1 s" pr $end
$var reg 1 t" cl $end
$var reg 1 u" q $end
$var reg 1 v" nq $end
$var reg 1 w" sq $end
$var reg 1 x" snq $end
$upscope $end
$upscope $end
$upscope $end
$upscope $end
$scope module gen_r(6) $end
$scope module rx $end
$var reg 1 y" d $end
$var reg 1 z" rw $end
$var reg 1 {" clk $end
$var reg 1 |" pr $end
$var reg 1 }" cl $end
$var reg 1 !# s $end
$var reg 1 "# sd $end
$var reg 1 ## sq $end
$var reg 1 $# snq $end
$scope module u_ffd $end
$var reg 1 %# d $end
$var reg 1 &# clk $end
$var reg 1 '# pr $end
$var reg 1 (# cl $end
$var reg 1 )# q $end
$var reg 1 *# nq $end
$var reg 1 +# sq $end
$var reg 1 ,# snq $end
$var reg 1 -# nj $end
$scope module u_td $end
$var reg 1 .# j $end
$var reg 1 /# k $end
$var reg 1 0# clk $end
$var reg 1 1# pr $end
$var reg 1 2# cl $end
$var reg 1 3# q $end
$var reg 1 4# nq $end
$var reg 1 5# sq $end
$var reg 1 6# snq $end
$upscope $end
$upscope $end
$upscope $end
$upscope $end
$scope module gen_r(7) $end
$scope module rx $end
$var reg 1 7# d $end
$var reg 1 8# rw $end
$var reg 1 9# clk $end
$var reg 1 :# pr $end
$var reg 1 ;# cl $end
$var reg 1 <# s $end
$var reg 1 =# sd $end
$var reg 1 ># sq $end
$var reg 1 ?# snq $end
$scope module u_ffd $end
$var reg 1 @# d $end
$var reg 1 A# clk $end
$var reg 1 B# pr $end
$var reg 1 C# cl $end
$var reg 1 D# q $end
$var reg 1 E# nq $end
$var reg 1 F# sq $end
$var reg 1 G# snq $end
$var reg 1 H# nj $end
$scope module u_td $end
$var reg 1 I# j $end
$var reg 1 J# k $end
$var reg 1 K# clk $end
$var reg 1 L# pr $end
$var reg 1 M# cl $end
$var reg 1 N# q $end
$var reg 1 O# nq $end
$var reg 1 P# sq $end
$var reg 1 Q# snq $end
$upscope $end
$upscope $end
$upscope $end
$upscope $end
$upscope $end
$scope module u_dec $end
$var reg 8 R# instr_in[7:0] $end
$var reg 11 S# instr_out[10:0] $end
$upscope $end
$scope module u_uc $end
$var reg 11 T# dec2un[10:0] $end
$var reg 2 U# nz[1:0] $end
$var reg 1 V# clk $end
$var reg 1 W# cl $end
$var reg 11 X# barr_crtl_out[10:0] $end
$var reg 3 Y# ci[2:0] $end
$var reg 11 Z# snop[10:0] $end
$var reg 11 [# ssta[10:0] $end
$var reg 11 \# slda[10:0] $end
$var reg 11 ]# sadd[10:0] $end
$var reg 11 ^# sand[10:0] $end
$var reg 11 _# sor[10:0] $end
$var reg 11 `# snot[10:0] $end
$var reg 11 a# sjmp[10:0] $end
$var reg 11 b# sjn[10:0] $end
$var reg 11 c# sjz[10:0] $end
$var reg 11 d# shlt[10:0] $end
$scope module u_c3b $end
$var reg 1 e# clk $end
$var reg 1 f# cl $end
$var reg 3 g# s[2:0] $end
$var reg 3 h# sj[2:0] $end
$var reg 3 i# sk[2:0] $end
$var reg 3 j# sq[2:0] $end
$var reg 3 k# snq[2:0] $end
$scope module gen_ffjk(0) $end
$scope module ffjk_x $end
$var reg 1 l# j $end
$var reg 1 m# k $end
$var reg 1 n# clk $end
$var reg 1 o# pr $end
$var reg 1 p# cl $end
$var reg 1 q# q $end
$var reg 1 r# nq $end
$var reg 1 s# sq $end
$var reg 1 t# snq $end
$upscope $end
$upscope $end
$scope module gen_ffjk(1) $end
$scope module ffjk_x $end
$var reg 1 u# j $end
$var reg 1 v# k $end
$var reg 1 w# clk $end
$var reg 1 x# pr $end
$var reg 1 y# cl $end
$var reg 1 z# q $end
$var reg 1 {# nq $end
$var reg 1 |# sq $end
$var reg 1 }# snq $end
$upscope $end
$upscope $end
$scope module gen_ffjk(2) $end
$scope module ffjk_x $end
$var reg 1 !$ j $end
$var reg 1 "$ k $end
$var reg 1 #$ clk $end
$var reg 1 $$ pr $end
$var reg 1 %$ cl $end
$var reg 1 &$ q $end
$var reg 1 '$ nq $end
$var reg 1 ($ sq $end
$var reg 1 )$ snq $end
$upscope $end
$upscope $end
$upscope $end
$scope module u_nop $end
$var reg 3 *$ ci[2:0] $end
$var reg 11 +$ instr[10:0] $end
$upscope $end
$scope module u_sta $end
$var reg 3 ,$ ci[2:0] $end
$var reg 11 -$ instr[10:0] $end
$upscope $end
$scope module u_lda $end
$var reg 3 .$ ci[2:0] $end
$var reg 11 /$ instr[10:0] $end
$upscope $end
$scope module u_add $end
$var reg 3 0$ ci[2:0] $end
$var reg 11 1$ instr[10:0] $end
$upscope $end
$scope module u_and $end
$var reg 3 2$ ci[2:0] $end
$var reg 11 3$ instr[10:0] $end
$upscope $end
$scope module u_or $end
$var reg 3 4$ ci[2:0] $end
$var reg 11 5$ instr[10:0] $end
$upscope $end
$scope module u_not $end
$var reg 3 6$ ci[2:0] $end
$var reg 11 7$ instr[10:0] $end
$upscope $end
$scope module u_jmp $end
$var reg 3 8$ ci[2:0] $end
$var reg 11 9$ instr[10:0] $end
$upscope $end
$scope module u_jn $end
$var reg 3 :$ ci[2:0] $end
$var reg 1 ;$ flag $end
$var reg 11 <$ instr[10:0] $end
$upscope $end
$scope module u_jz $end
$var reg 3 =$ ci[2:0] $end
$var reg 1 >$ flag $end
$var reg 11 ?$ instr[10:0] $end
$upscope $end
$scope module u_hlt $end
$var reg 3 @$ ci[2:0] $end
$var reg 11 A$ instr[10:0] $end
$upscope $end
$upscope $end
$upscope $end
$upscope $end
$enddefinitions $end
#0
0!
0"
bZZZZZZZZ #
b00 $
b11000000100 %
bZZZZZZZZ &
b00 '
0(
0)
b11000000100 *
b11000000100 +
b00000000 ,
b10000000000 -
bZZZZZZZZ .
0/
00
11
02
b00000000 3
Z4
05
06
17
08
09
0:
0;
1<
0=
0>
1?
0@
0A
1B
0C
1D
1E
0F
1G
0H
1I
0J
0K
1L
0M
1N
ZO
0P
0Q
1R
0S
0T
0U
0V
1W
0X
0Y
1Z
0[
0\
1]
0^
1_
1`
0a
1b
0c
1d
0e
0f
1g
0h
1i
Zj
0k
0l
1m
0n
0o
0p
0q
1r
0s
0t
1u
0v
0w
1x
0y
1z
1{
0|
1}
0!"
1""
0#"
0$"
1%"
0&"
1'"
Z("
0)"
0*"
1+"
0,"
0-"
0."
0/"
10"
01"
02"
13"
04"
05"
16"
07"
18"
19"
0:"
1;"
0<"
1="
0>"
0?"
1@"
0A"
1B"
ZC"
0D"
0E"
1F"
0G"
0H"
0I"
0J"
1K"
0L"
0M"
1N"
0O"
0P"
1Q"
0R"
1S"
1T"
0U"
1V"
0W"
1X"
0Y"
0Z"
1["
0\"
1]"
Z^"
0_"
0`"
1a"
0b"
0c"
0d"
0e"
1f"
0g"
0h"
1i"
0j"
0k"
1l"
0m"
1n"
1o"
0p"
1q"
0r"
1s"
0t"
0u"
1v"
0w"
1x"
Zy"
0z"
0{"
1|"
0}"
0!#
0"#
0##
1$#
0%#
0&#
1'#
0(#
0)#
1*#
0+#
1,#
1-#
0.#
1/#
00#
11#
02#
03#
14#
05#
16#
Z7#
08#
09#
1:#
0;#
0<#
0=#
0>#
1?#
0@#
0A#
1B#
0C#
0D#
1E#
0F#
1G#
1H#
0I#
1J#
0K#
1L#
0M#
0N#
1O#
0P#
1Q#
b00000000 R#
b10000000000 S#
b10000000000 T#
b00 U#
0V#
0W#
b11000000100 X#
b000 Y#
b11000000100 Z#
b11000000100 [#
b11000000110 \#
b11001000100 ]#
b11011000100 ^#
b11010000100 _#
b11100000100 `#
b11000000100 a#
b11000000100 b#
b11000000100 c#
b00000000000 d#
0e#
0f#
b000 g#
b001 h#
b001 i#
b000 j#
b111 k#
1l#
1m#
0n#
1o#
0p#
0q#
1r#
0s#
1t#
0u#
0v#
0w#
1x#
0y#
0z#
1{#
0|#
1}#
0!$
0"$
0#$
1$$
0%$
0&$
1'$
0($
1)$
b000 *$
b11000000100 +$
b000 ,$
b11000000100 -$
b000 .$
b11000000110 /$
b000 0$
b11001000100 1$
b000 2$
b11011000100 3$
b000 4$
b11010000100 5$
b000 6$
b11100000100 7$
b000 8$
b11000000100 9$
b000 :$
0;$
b11000000100 <$
b000 =$
0>$
b11000000100 ?$
b000 @$
b00000000000 A$
#5000000
1!
1(
10
16
1>
1H
1Q
1Y
1c
1l
1t
1!"
1*"
12"
1<"
1E"
1M"
1W"
1`"
1h"
1r"
1{"
1&#
10#
19#
1A#
1K#
1V#
1e#
1n#
1w#
1#$
#10000000
0!
0(
00
06
0>
0H
0Q
0Y
0c
0l
0t
0!"
0*"
02"
0<"
0E"
0M"
0W"
0`"
0h"
0r"
0{"
0&#
00#
09#
0A#
0K#
0V#
0e#
0n#
0w#
0#$
#15000000
1!
1(
10
16
1>
1H
1Q
1Y
1c
1l
1t
1!"
1*"
12"
1<"
1E"
1M"
1W"
1`"
1h"
1r"
1{"
1&#
10#
19#
1A#
1K#
1V#
1e#
1n#
1w#
1#$
#20000000
0!
1"
b00000000 #
b00000000 &
0(
1)
b00000000 .
00
12
04
06
18
0>
1@
0H
1J
0O
0Q
1S
0Y
1[
0c
1e
0j
0l
1n
0t
1v
0!"
1#"
0("
0*"
1,"
02"
14"
0<"
1>"
0C"
0E"
1G"
0M"
1O"
0W"
1Y"
0^"
0`"
1b"
0h"
1j"
0r"
1t"
0y"
0{"
1}"
0&#
1(#
00#
12#
07#
09#
1;#
0A#
1C#
0K#
1M#
0V#
1W#
0e#
1f#
0n#
1p#
0w#
1y#
0#$
1%$
#25000000
1!
1(
10
16
1>
1H
1Q
1Y
1c
1l
1t
1!"
1*"
12"
1<"
1E"
1M"
1W"
1`"
1h"
1r"
1{"
1&#
10#
19#
1A#
1K#
1V#
1e#
1n#
1w#
1#$
#30000000
0!
b11000100010 %
0(
b11000100010 *
b11000100010 +
00
06
0>
0H
0Q
0Y
0c
0l
0t
0!"
0*"
02"
0<"
0E"
0M"
0W"
0`"
0h"
0r"
0{"
0&#
00#
09#
0A#
0K#
0V#
b11000100010 X#
b001 Y#
b11000100010 Z#
b11000100000 [#
b11000100010 \#
b11001100010 ]#
b11011100010 ^#
b11010100010 _#
b11100100010 `#
b11000100010 a#
b11000100010 b#
b11000100010 c#
0e#
b001 g#
b011 h#
b011 i#
b001 j#
b110 k#
0n#
1q#
0r#
1s#
0t#
1u#
1v#
0w#
0#$
b001 *$
b11000100010 +$
b001 ,$
b11000100000 -$
b001 .$
b11000100010 /$
b001 0$
b11001100010 1$
b001 2$
b11011100010 3$
b001 4$
b11010100010 5$
b001 6$
b11100100010 7$
b001 8$
b11000100010 9$
b001 :$
b11000100010 <$
b001 =$
b11000100010 ?$
b001 @$
#35000000
1!
1(
10
16
1>
1H
1Q
1Y
1c
1l
1t
1!"
1*"
12"
1<"
1E"
1M"
1W"
1`"
1h"
1r"
1{"
1&#
10#
19#
1A#
1K#
1V#
1e#
1n#
1w#
1#$
#40000000
0!
b11000000001 %
0(
b11000000001 *
b11000000001 +
1/
00
15
06
0>
0H
1P
0Q
0Y
0c
1k
0l
0t
0!"
1)"
0*"
02"
0<"
1D"
0E"
0M"
0W"
1_"
0`"
0h"
0r"
1z"
0{"
0&#
00#
18#
09#
0A#
0K#
0V#
b11000000001 X#
b010 Y#
b11000000001 Z#
b11000000001 [#
b11000000011 \#
b11001000001 ]#
b11011000001 ^#
b11010000001 _#
b11100000001 `#
b11000000001 a#
b11000000001 b#
b11000000001 c#
0e#
b010 g#
b001 h#
b001 i#
b010 j#
b101 k#
0n#
0q#
1r#
0s#
1t#
0u#
0v#
0w#
1z#
0{#
1|#
0}#
0#$
b010 *$
b11000000001 +$
b010 ,$
b11000000001 -$
b010 .$
b11000000011 /$
b010 0$
b11001000001 1$
b010 2$
b11011000001 3$
b010 4$
b11010000001 5$
b010 6$
b11100000001 7$
b010 8$
b11000000001 9$
b010 :$
b11000000001 <$
b010 =$
b11000000001 ?$
b010 @$
#45000000
1!
1(
10
16
1>
1H
1Q
1Y
1c
1l
1t
1!"
1*"
12"
1<"
1E"
1M"
1W"
1`"
1h"
1r"
1{"
1&#
10#
19#
1A#
1K#
1V#
1e#
1n#
1w#
1#$
#50000000
0!
b11000000000 %
0(
b11000000000 *
b11000000000 +
0/
00
05
06
0>
0H
0P
0Q
0Y
0c
0k
0l
0t
0!"
0)"
0*"
02"
0<"
0D"
0E"
0M"
0W"
0_"
0`"
0h"
0r"
0z"
0{"
0&#
00#
08#
09#
0A#
0K#
0V#
b11000000000 X#
b011 Y#
b11000000000 Z#
b11000000100 [#
b11000000100 \#
b11001000100 ]#
b11011000100 ^#
b11010000100 _#
b11100000000 `#
b11000000100 a#
b11000100000 b#
b11000100000 c#
0e#
b011 g#
b111 h#
b111 i#
b011 j#
b100 k#
0n#
1q#
0r#
1s#
0t#
1u#
1v#
0w#
1!$
1"$
0#$
b011 *$
b11000000000 +$
b011 ,$
b11000000100 -$
b011 .$
b11000000100 /$
b011 0$
b11001000100 1$
b011 2$
b11011000100 3$
b011 4$
b11010000100 5$
b011 6$
b11100000000 7$
b011 8$
b11000000100 9$
b011 :$
b11000100000 <$
b011 =$
b11000100000 ?$
b011 @$
#55000000
1!
1(
10
16
1>
1H
1Q
1Y
1c
1l
1t
1!"
1*"
12"
1<"
1E"
1M"
1W"
1`"
1h"
1r"
1{"
1&#
10#
19#
1A#
1K#
1V#
1e#
1n#
1w#
1#$
#60000000
0!
0(
00
06
0>
0H
0Q
0Y
0c
0l
0t
0!"
0*"
02"
0<"
0E"
0M"
0W"
0`"
0h"
0r"
0{"
0&#
00#
09#
0A#
0K#
0V#
b100 Y#
b11000100000 [#
b11000100010 \#
b11001100010 ]#
b11011100010 ^#
b11010100010 _#
b11000000010 a#
b11000000000 b#
b11000000000 c#
0e#
b100 g#
b001 h#
b001 i#
b100 j#
b011 k#
0n#
0q#
1r#
0s#
1t#
0u#
0v#
0w#
0z#
1{#
0|#
1}#
0!$
0"$
0#$
1&$
0'$
1($
0)$
b100 *$
b100 ,$
b11000100000 -$
b100 .$
b11000100010 /$
b100 0$
b11001100010 1$
b100 2$
b11011100010 3$
b100 4$
b11010100010 5$
b100 6$
b100 8$
b11000000010 9$
b100 :$
b11000000000 <$
b100 =$
b11000000000 ?$
b100 @$
#65000000
1!
1(
10
16
1>
1H
1Q
1Y
1c
1l
1t
1!"
1*"
12"
1<"
1E"
1M"
1W"
1`"
1h"
1r"
1{"
1&#
10#
19#
1A#
1K#
1V#
1e#
1n#
1w#
1#$
#70000000
0!
0(
00
06
0>
0H
0Q
0Y
0c
0l
0t
0!"
0*"
02"
0<"
0E"
0M"
0W"
0`"
0h"
0r"
0{"
0&#
00#
09#
0A#
0K#
0V#
b101 Y#
b10000000100 [#
b10000000100 \#
b10001000100 ]#
b10011000100 ^#
b10010000100 _#
b01000100000 a#
0e#
b101 g#
b011 h#
b011 i#
b101 j#
b010 k#
0n#
1q#
0r#
1s#
0t#
1u#
1v#
0w#
0#$
b101 *$
b101 ,$
b10000000100 -$
b101 .$
b10000000100 /$
b101 0$
b10001000100 1$
b101 2$
b10011000100 3$
b101 4$
b10010000100 5$
b101 6$
b101 8$
b01000100000 9$
b101 :$
b101 =$
b101 @$
#75000000
1!
1(
10
16
1>
1H
1Q
1Y
1c
1l
1t
1!"
1*"
12"
1<"
1E"
1M"
1W"
1`"
1h"
1r"
1{"
1&#
10#
19#
1A#
1K#
1V#
1e#
1n#
1w#
1#$
#80000000
0!
0(
00
06
0>
0H
0Q
0Y
0c
0l
0t
0!"
0*"
02"
0<"
0E"
0M"
0W"
0`"
0h"
0r"
0{"
0&#
00#
09#
0A#
0K#
0V#
b110 Y#
b11000001010 [#
b11000000010 \#
b11001000010 ]#
b11011000010 ^#
b11010000010 _#
b11000000000 a#
0e#
b110 g#
b001 h#
b001 i#
b110 j#
b001 k#
0n#
0q#
1r#
0s#
1t#
0u#
0v#
0w#
1z#
0{#
1|#
0}#
0#$
b110 *$
b110 ,$
b11000001010 -$
b110 .$
b11000000010 /$
b110 0$
b11001000010 1$
b110 2$
b11011000010 3$
b110 4$
b11010000010 5$
b110 6$
b110 8$
b11000000000 9$
b110 :$
b110 =$
b110 @$
#85000000
1!
1(
10
16
1>
1H
1Q
1Y
1c
1l
1t
1!"
1*"
12"
1<"
1E"
1M"
1W"
1`"
1h"
1r"
1{"
1&#
10#
19#
1A#
1K#
1V#
1e#
1n#
1w#
1#$
#90000000
0!
0(
00
06
0>
0H
0Q
0Y
0c
0l
0t
0!"
0*"
02"
0<"
0E"
0M"
0W"
0`"
0h"
0r"
0{"
0&#
00#
09#
0A#
0K#
0V#
b111 Y#
b11000000000 [#
b11000010000 \#
b11001010000 ]#
b11011010000 ^#
b11010010000 _#
b11100010000 `#
b01000000000 a#
0e#
b111 g#
b111 h#
b111 i#
b111 j#
b000 k#
0n#
1q#
0r#
1s#
0t#
1u#
1v#
0w#
1!$
1"$
0#$
b111 *$
b111 ,$
b11000000000 -$
b111 .$
b11000010000 /$
b111 0$
b11001010000 1$
b111 2$
b11011010000 3$
b111 4$
b11010010000 5$
b111 6$
b11100010000 7$
b111 8$
b01000000000 9$
b111 :$
b111 =$
b111 @$
#95000000
1!
1(
10
16
1>
1H
1Q
1Y
1c
1l
1t
1!"
1*"
12"
1<"
1E"
1M"
1W"
1`"
1h"
1r"
1{"
1&#
10#
19#
1A#
1K#
1V#
1e#
1n#
1w#
1#$
#100000000
0!
b00010000 #
b11000000100 %
b00010000 &
0(
b11000000100 *
b11000000100 +
b00010000 .
00
06
0>
0H
0Q
0Y
0c
0l
0t
0!"
0*"
02"
0<"
1C"
0E"
0M"
0W"
0`"
0h"
0r"
0{"
0&#
00#
09#
0A#
0K#
0V#
b11000000100 X#
b000 Y#
b11000000100 Z#
b11000000100 [#
b11000000110 \#
b11001000100 ]#
b11011000100 ^#
b11010000100 _#
b11100000100 `#
b11000000100 a#
b11000000100 b#
b11000000100 c#
0e#
b000 g#
b001 h#
b001 i#
b000 j#
b111 k#
0n#
0q#
1r#
0s#
1t#
0u#
0v#
0w#
0z#
1{#
0|#
1}#
0!$
0"$
0#$
0&$
1'$
0($
1)$
b000 *$
b11000000100 +$
b000 ,$
b11000000100 -$
b000 .$
b11000000110 /$
b000 0$
b11001000100 1$
b000 2$
b11011000100 3$
b000 4$
b11010000100 5$
b000 6$
b11100000100 7$
b000 8$
b11000000100 9$
b000 :$
b11000000100 <$
b000 =$
b11000000100 ?$
b000 @$
#105000000
1!
1(
10
16
1>
1H
1Q
1Y
1c
1l
1t
1!"
1*"
12"
1<"
1E"
1M"
1W"
1`"
1h"
1r"
1{"
1&#
10#
19#
1A#
1K#
1V#
1e#
1n#
1w#
1#$
#110000000
0!
b11000100010 %
0(
b11000100010 *
b11000100010 +
00
06
0>
0H
0Q
0Y
0c
0l
0t
0!"
0*"
02"
0<"
0E"
0M"
0W"
0`"
0h"
0r"
0{"
0&#
00#
09#
0A#
0K#
0V#
b11000100010 X#
b001 Y#
b11000100010 Z#
b11000100000 [#
b11000100010 \#
b11001100010 ]#
b11011100010 ^#
b11010100010 _#
b11100100010 `#
b11000100010 a#
b11000100010 b#
b11000100010 c#
0e#
b001 g#
b011 h#
b011 i#
b001 j#
b110 k#
0n#
1q#
0r#
1s#
0t#
1u#
1v#
0w#
0#$
b001 *$
b11000100010 +$
b001 ,$
b11000100000 -$
b001 .$
b11000100010 /$
b001 0$
b11001100010 1$
b001 2$
b11011100010 3$
b001 4$
b11010100010 5$
b001 6$
b11100100010 7$
b001 8$
b11000100010 9$
b001 :$
b11000100010 <$
b001 =$
b11000100010 ?$
b001 @$
#115000000
1!
1(
10
16
1>
1H
1Q
1Y
1c
1l
1t
1!"
1*"
12"
1<"
1E"
1M"
1W"
1`"
1h"
1r"
1{"
1&#
10#
19#
1A#
1K#
1V#
1e#
1n#
1w#
1#$
#120000000
0!
b11000000001 %
0(
b11000000001 *
b11000000001 +
1/
00
15
06
0>
0H
1P
0Q
0Y
0c
1k
0l
0t
0!"
1)"
0*"
02"
0<"
1D"
0E"
1I"
1L"
0M"
0T"
1U"
0V"
0W"
1_"
0`"
0h"
0r"
1z"
0{"
0&#
00#
18#
09#
0A#
0K#
0V#
b11000000001 X#
b010 Y#
b11000000001 Z#
b11000000001 [#
b11000000011 \#
b11001000001 ]#
b11011000001 ^#
b11010000001 _#
b11100000001 `#
b11000000001 a#
b11000000001 b#
b11000000001 c#
0e#
b010 g#
b001 h#
b001 i#
b010 j#
b101 k#
0n#
0q#
1r#
0s#
1t#
0u#
0v#
0w#
1z#
0{#
1|#
0}#
0#$
b010 *$
b11000000001 +$
b010 ,$
b11000000001 -$
b010 .$
b11000000011 /$
b010 0$
b11001000001 1$
b010 2$
b11011000001 3$
b010 4$
b11010000001 5$
b010 6$
b11100000001 7$
b010 8$
b11000000001 9$
b010 :$
b11000000001 <$
b010 =$
b11000000001 ?$
b010 @$
#125000000
1!
1(
10
16
1>
1H
1Q
1Y
1c
1l
1t
1!"
1*"
12"
1<"
1E"
1M"
1W"
1`"
1h"
1r"
1{"
1&#
10#
19#
1A#
1K#
1V#
1e#
1n#
1w#
1#$
#130000000
0!
b11000000100 %
0(
b11000000100 *
b11000000100 +
b00010000 ,
b01000000000 -
0/
00
b00010000 3
05
06
0>
0H
0P
0Q
0Y
0c
0k
0l
0t
0!"
0)"
0*"
02"
0<"
0D"
0E"
1H"
1J"
0K"
0M"
1P"
0Q"
0W"
1Z"
0["
1\"
0]"
0_"
0`"
0h"
0r"
0z"
0{"
0&#
00#
08#
09#
0A#
0K#
b00010000 R#
b01000000000 S#
b01000000000 T#
0V#
b11000000100 X#
b011 Y#
b11000000000 Z#
b11000000100 [#
b11000000100 \#
b11001000100 ]#
b11011000100 ^#
b11010000100 _#
b11100000000 `#
b11000000100 a#
b11000100000 b#
b11000100000 c#
0e#
b011 g#
b111 h#
b111 i#
b011 j#
b100 k#
0n#
1q#
0r#
1s#
0t#
1u#
1v#
0w#
1!$
1"$
0#$
b011 *$
b11000000000 +$
b011 ,$
b11000000100 -$
b011 .$
b11000000100 /$
b011 0$
b11001000100 1$
b011 2$
b11011000100 3$
b011 4$
b11010000100 5$
b011 6$
b11100000000 7$
b011 8$
b11000000100 9$
b011 :$
b11000100000 <$
b011 =$
b11000100000 ?$
b011 @$
#135000000
1!
1(
10
16
1>
1H
1Q
1Y
1c
1l
1t
1!"
1*"
12"
1<"
1E"
1M"
1W"
1`"
1h"
1r"
1{"
1&#
10#
19#
1A#
1K#
1V#
1e#
1n#
1w#
1#$
#140000000
0!
b11000100000 %
0(
b11000100000 *
b11000100000 +
00
06
0>
0H
0Q
0Y
0c
0l
0t
0!"
0*"
02"
0<"
0E"
0M"
0W"
0`"
0h"
0r"
0{"
0&#
00#
09#
0A#
0K#
0V#
b11000100000 X#
b100 Y#
b11000100000 [#
b11000100010 \#
b11001100010 ]#
b11011100010 ^#
b11010100010 _#
b11000000010 a#
b11000000000 b#
b11000000000 c#
0e#
b100 g#
b001 h#
b001 i#
b100 j#
b011 k#
0n#
0q#
1r#
0s#
1t#
0u#
0v#
0w#
0z#
1{#
0|#
1}#
0!$
0"$
0#$
1&$
0'$
1($
0)$
b100 *$
b100 ,$
b11000100000 -$
b100 .$
b11000100010 /$
b100 0$
b11001100010 1$
b100 2$
b11011100010 3$
b100 4$
b11010100010 5$
b100 6$
b100 8$
b11000000010 9$
b100 :$
b11000000000 <$
b100 =$
b11000000000 ?$
b100 @$
#145000000
1!
1(
10
16
1>
1H
1Q
1Y
1c
1l
1t
1!"
1*"
12"
1<"
1E"
1M"
1W"
1`"
1h"
1r"
1{"
1&#
10#
19#
1A#
1K#
1V#
1e#
1n#
1w#
1#$
